M48
; DRILL file {KiCad 7.0.8} date Tue Nov 14 15:36:18 2023
; FORMAT={-:-/ absolute / inch / decimal}
; #@! TF.CreationDate,2023-11-14T15:36:18-08:00
; #@! TF.GenerationSoftware,Kicad,Pcbnew,7.0.8
; #@! TF.FileFunction,Plated,1,2,PTH
FMAT,2
INCH
; #@! TA.AperFunction,Plated,PTH,ViaDrill
T1C0.0157
; #@! TA.AperFunction,Plated,PTH,ComponentDrill
T2C0.0236
; #@! TA.AperFunction,Plated,PTH,ComponentDrill
T3C0.0394
%
G90
G05
T1
X0.3998Y0.793
X0.5248Y1.703
X0.7098Y0.793
X0.7148Y1.703
X0.9048Y1.703
X1.0098Y0.793
X1.0148Y1.273
X1.0548Y1.863
X1.0763Y2.1155
X1.0848Y2.493
X1.0848Y2.353
X1.0948Y1.703
X1.1148Y1.273
X1.1363Y2.1172
X1.1548Y1.863
X1.1934Y2.1141
X1.2148Y1.863
X1.2148Y1.273
X1.2533Y2.1403
X1.2848Y1.703
X1.2914Y2.1235
X1.2998Y0.793
X1.3148Y1.273
X1.3171Y2.2505
X1.3248Y2.493
X1.378Y2.0866
X1.4148Y1.813
X1.4148Y1.273
X1.4748Y1.703
X1.4748Y0.488
X1.5148Y1.273
X1.5748Y1.8504
X1.6048Y0.793
X1.6099Y0.4425
X1.6142Y1.8504
X1.6148Y1.273
X1.6648Y1.703
X1.7148Y1.273
X1.7498Y0.818
X1.7755Y1.843
X1.7798Y0.523
X1.8148Y1.843
X1.8548Y1.703
X1.8948Y2.583
X1.9049Y0.4416
X1.9107Y0.7894
X2.02Y0.8278
X2.0448Y1.703
X2.0698Y0.523
X2.1148Y2.263
X2.1648Y1.813
X2.2048Y2.183
X2.2048Y1.813
X2.2048Y0.793
X2.2049Y0.4416
X2.2148Y1.263
X2.2148Y0.923
X2.2548Y1.703
X2.3048Y2.103
X2.3148Y1.263
X2.3148Y0.923
X2.3348Y0.828
X2.3548Y2.103
X2.3648Y1.813
X2.3748Y0.523
X2.4148Y1.263
X2.4148Y0.923
X2.4448Y1.703
X2.4498Y2.088
X2.4998Y2.238
X2.5098Y0.793
X2.5116Y0.4431
X2.5148Y1.263
X2.5448Y1.913
X2.6148Y2.463
X2.6148Y2.023
X2.6148Y1.263
X2.6348Y1.703
X2.6382Y2.3435
X2.6548Y2.123
X2.6939Y2.4236
X2.6948Y2.143
X2.7148Y1.263
X2.7248Y2.173
X2.7466Y2.2057
X2.7946Y1.8527
X2.806Y0.448
X2.8148Y1.263
X2.8248Y1.703
X2.8721Y2.0703
X2.9048Y2.253
X2.9148Y1.263
X2.9463Y1.8262
X2.9748Y1.863
X3.0148Y1.703
X3.1048Y0.448
X3.2048Y1.703
X3.3948Y1.703
X3.4098Y0.448
X3.5948Y3.033
X3.5948Y2.793
X3.7098Y0.448
T3
X0.6498Y1.263
X0.6498Y1.163
X0.6498Y1.063
X0.7498Y1.263
X0.7498Y1.163
X0.7498Y1.063
X1.1998Y2.913
X1.1998Y2.813
X1.2998Y2.913
X1.2998Y2.813
X1.3998Y2.913
X1.3998Y2.813
X1.4998Y2.913
X1.4998Y2.813
X1.5998Y2.913
X1.5998Y2.813
X1.6998Y2.913
X1.6998Y2.813
X1.7998Y2.913
X1.7998Y2.813
X1.8998Y2.913
X1.8998Y2.813
X1.9998Y2.913
X1.9998Y2.813
X2.0998Y2.913
X2.0998Y2.813
X2.1998Y2.913
X2.1998Y2.813
X2.2998Y2.913
X2.2998Y2.813
X2.3998Y2.913
X2.3998Y2.813
X2.4998Y2.913
X2.4998Y2.813
X2.5998Y2.913
X2.5998Y2.813
X2.6998Y2.913
X2.6998Y2.813
X3.1496Y1.2624
X3.1496Y1.1624
X3.1496Y1.0624
X3.2496Y1.2624
X3.2496Y1.1624
X3.2496Y1.0624
X3.2504Y2.8628
X3.2504Y2.7628
X3.3504Y2.8628
X3.3504Y2.7628
X3.4504Y2.8628
X3.4504Y2.7628
T2
G00X3.6409Y3.0831
M15
G01X3.6842Y3.0831
M16
G05
G00X3.6409Y2.7429
M15
G01X3.6842Y2.7429
M16
G05
G00X3.8153Y3.0831
M15
G01X3.8389Y3.0831
M16
G05
G00X3.8153Y2.7429
M15
G01X3.8389Y2.7429
M16
G05
T0
M30
